…
## Example

Go to http://books.toscrape.com/catalogue/page-1.html and scrape the first 
five pages of data on books with regards to their

1. title
2. price
3. star rating
4. availability

Organize your results in a neatly formatted tibble similar to below.

```{r eval=FALSE}
# A tibble: 100 x 4
   title                                 price rating available
   <chr>                                 <chr> <chr>  <chr>    
 1 A Light in the Attic                  £51.… Three  In stock 
 2 Tipping the Velvet                    £53.… One    In stock 
 3 Soumission                            £50.… One    In stock 
 4 Sharp Objects                         £47.… Four   In stock 
 5 Sapiens: A Brief History of Humankind £54.… Five   In stock 
 6 The Requiem Red                       £22.… One    In stock 
 7 The Dirty Little Secrets of Getting … £33.… Four   In stock 
 8 The Coming Woman: A Novel Based on t… £17.… Three  In stock 
 9 The Boys in the Boat: Nine Americans… £22.… Four   In stock 
10 The Black Maria                       £52.… One    In stock 
# … with 90 more rows
```
…
pages <- 1:5
books <- map_df(pages, get_books)
```

---

## Exercise

Scrape the first page of books from each genre in the side bar on the website
http://books.toscrape.com/. Scape the same information as before and include
the genre.

```{r eval=FALSE}
# A tibble: 517 x 5
   title                                price  rating available genre
   <chr>                                <chr>  <chr>  <chr>     <chr>
 1 It's Only the Himalayas              £45.17 Two    In stock  Trav…
 2 Full Moon over Noah’s Ark: An Odyss… £49.43 Four   In stock  Trav…
 3 See America: A Celebration of Our N… £48.87 Three  In stock  Trav…
 4 Vagabonding: An Uncommon Guide to t… £36.94 Two    In stock  Trav…
 5 Under the Tuscan Sun                 £37.33 Three  In stock  Trav…
 6 A Summer In Europe                   £44.34 Two    In stock  Trav…
 7 The Great Railway Bazaar             £30.54 One    In stock  Trav…
 8 A Year in Provence (Provence #1)     £56.88 Four   In stock  Trav…
 9 The Road to Little Dribbling: Adven… £23.21 One    In stock  Trav…
10 Neither Here nor There: Travels in … £38.95 Three  In stock  Trav…
# … with 507 more rows
```
…
